Library/Bee/artifacts/mvdfrm/UnityEditor.TestRunner.ref.dll_2594DFF003AE8269.mvfrm
Library/Bee/artifacts/mvdfrm/UnityEditor.UI.ref.dll_452FB8EBD860BCAB.mvfrm
Library/Bee/artifacts/mvdfrm/UnityEngine.TestRunner.ref.dll_F1B32A9E2F71E054.mvfrm
Library/Bee/artifacts/mvdfrm/UnityEngine.UI.ref.dll_01958F46DE82E516.mvfrm
Library/Bee/artifacts/mvdfrm/UnityEditor.Graphs.dll_F5FFCC117967ED72.mvfrm
Library/Bee/artifacts/mvdfrm/UnityEditor.CoreModule.dll_6F7AF06B49E0A340.mvfrm
Library/Bee/artifacts/mvdfrm/UnityEditor.DeviceSimulatorModule.dll_AA7D71E452E8CE81.mvfrm
Library/Bee/artifacts/mvdfrm/UnityEditor.DiagnosticsModule.dll_DEA0029D5D43F88F.mvfrm
Library/Bee/artifacts/mvdfrm/UnityEditor.GraphViewModule.dll_3F814A5588352086.mvfrm
Library/Bee/artifacts/mvdfrm/UnityEditor.PackageManagerUIModule.dll_9B5CBC3BAFAE409C.mvfrm
Library/Bee/artifacts/mvdfrm/UnityEditor.QuickSearchModule.dll_69AF83AAB61AF4E8.mvfrm
Library/Bee/artifacts/mvdfrm/UnityEditor.SceneTemplateModule.dll_9B9FFB1947496069.mvfrm
Library/Bee/artifacts/mvdfrm/UnityEditor.TextCoreFontEngineModule.dll_A189D6DA60AA4CBE.mvfrm
Library/Bee/artifacts/mvdfrm/UnityEditor.TextCoreTextEngineModule.dll_E9720D4BF02E05DC.mvfrm
Library/Bee/artifacts/mvdfrm/UnityEditor.UIBuilderModule.dll_9409F771FAED99BA.mvfrm
Library/Bee/artifacts/mvdfrm/UnityEditor.UIElementsModule.dll_BE3EEB80DA2EAA7C.mvfrm
Library/Bee/artifacts/mvdfrm/UnityEditor.UIElementsSamplesModule.dll_7CEF5B6D1B5132B1.mvfrm
Library/Bee/artifacts/mvdfrm/UnityEditor.UIServiceModule.dll_CCFC08D4E424E9D4.mvfrm
Library/Bee/artifacts/mvdfrm/UnityEditor.UnityConnectModule.dll_CF8EBB353236F1F6.mvfrm
Library/Bee/artifacts/mvdfrm/UnityEditor.dll_1E57A13C1D7AA255.mvfrm
Library/Bee/artifacts/mvdfrm/UnityEngine.AIModule.dll_4E42E92DBA9E8994.mvfrm
Library/Bee/artifacts/mvdfrm/UnityEngine.ARModule.dll_07B5AE3117BBE85D.mvfrm
Library/Bee/artifacts/mvdfrm/UnityEngine.AccessibilityModule.dll_CE4566B047BF8806.mvfrm
Library/Bee/artifacts/mvdfrm/UnityEngine.AndroidJNIModule.dll_3C87D454234E1952.mvfrm
Library/Bee/artifacts/mvdfrm/UnityEngine.AnimationModule.dll_0E06C67E6291F52C.mvfrm
Library/Bee/artifacts/mvdfrm/UnityEngine.AssetBundleModule.dll_AD98B69C1881A9DA.mvfrm
Library/Bee/artifacts/mvdfrm/UnityEngine.AudioModule.dll_3B033DE13C782B1E.mvfrm
Library/Bee/artifacts/mvdfrm/UnityEngine.ClothModule.dll_A1EB9ADC16950A02.mvfrm
Library/Bee/artifacts/mvdfrm/UnityEngine.ClusterInputModule.dll_4F2B304AE3BEC4BC.mvfrm
Library/Bee/artifacts/mvdfrm/UnityEngine.ClusterRendererModule.dll_B02A3455C2A3DC05.mvfrm
Library/Bee/artifacts/mvdfrm/UnityEngine.CoreModule.dll_929BC3BDF1E60E6B.mvfrm
Library/Bee/artifacts/mvdfrm/UnityEngine.CrashReportingModule.dll_65AFCB510E6E52E3.mvfrm
Library/Bee/artifacts/mvdfrm/UnityEngine.DSPGraphModule.dll_22419F471A65F069.mvfrm
Library/Bee/artifacts/mvdfrm/UnityEngine.DirectorModule.dll_1CF03DDDA8051F48.mvfrm
Library/Bee/artifacts/mvdfrm/UnityEngine.GIModule.dll_E67F323B564D71AE.mvfrm
Library/Bee/artifacts/mvdfrm/UnityEngine.GameCenterModule.dll_66D51E6EE98F0A43.mvfrm
Library/Bee/artifacts/mvdfrm/UnityEngine.GridModule.dll_700CDFAC0A3AA462.mvfrm
Library/Bee/artifacts/mvdfrm/UnityEngine.HotReloadModule.dll_8F4F84843DC510AE.mvfrm
Library/Bee/artifacts/mvdfrm/UnityEngine.IMGUIModule.dll_7362DD4802A9BEFF.mvfrm
Library/Bee/artifacts/mvdfrm/UnityEngine.ImageConversionModule.dll_1C1C320644C893F9.mvfrm
Library/Bee/artifacts/mvdfrm/UnityEngine.InputLegacyModule.dll_3EDDD1BAB0735FCB.mvfrm
Library/Bee/artifacts/mvdfrm/UnityEngine.InputModule.dll_A1790591B2B04FC2.mvfrm
Library/Bee/artifacts/mvdfrm/UnityEngine.JSONSerializeModule.dll_2E5CEFEC46FAE890.mvfrm
Library/Bee/artifacts/mvdfrm/UnityEngine.LocalizationModule.dll_8D77FA9D7B3AB7B5.mvfrm
Library/Bee/artifacts/mvdfrm/UnityEngine.NVIDIAModule.dll_BF2649A672690E37.mvfrm
Library/Bee/artifacts/mvdfrm/UnityEngine.ParticleSystemModule.dll_B8C2149D7C7FDE71.mvfrm
Library/Bee/artifacts/mvdfrm/UnityEngine.PerformanceReportingModule.dll_B9812876AF80CE2A.mvfrm
Library/Bee/artifacts/mvdfrm/UnityEngine.Physics2DModule.dll_5AACB66F038EECC1.mvfrm
Library/Bee/artifacts/mvdfrm/UnityEngine.PhysicsModule.dll_396099B6193F85AF.mvfrm
Library/Bee/artifacts/mvdfrm/UnityEngine.ProfilerModule.dll_4F367714415EA655.mvfrm
Library/Bee/artifacts/mvdfrm/UnityEngine.RuntimeInitializeOnLoadManagerInitializerModule.dll_BBA971BE0EFB5F8A.mvfrm
Library/Bee/artifacts/mvdfrm/UnityEngine.ScreenCaptureModule.dll_48449D715B6714F2.mvfrm
Library/Bee/artifacts/mvdfrm/UnityEngine.SharedInternalsModule.dll_A02D70DBBBF68F49.mvfrm
Library/Bee/artifacts/mvdfrm/UnityEngine.SpriteMaskModule.dll_500190FF0AFE9FBD.mvfrm
Library/Bee/artifacts/mvdfrm/UnityEngine.SpriteShapeModule.dll_C6F9E3F6CE23E1E4.mvfrm
Library/Bee/artifacts/mvdfrm/UnityEngine.StreamingModule.dll_C29BB3CEB219AC6A.mvfrm
Library/Bee/artifacts/mvdfrm/UnityEngine.SubstanceModule.dll_9F46C817FD6CAA78.mvfrm
Library/Bee/artifacts/mvdfrm/UnityEngine.SubsystemsModule.dll_BAAEF760D94687D0.mvfrm
Library/Bee/artifacts/mvdfrm/UnityEngine.TLSModule.dll_11B132BB3C9652C3.mvfrm
Library/Bee/artifacts/mvdfrm/UnityEngine.TerrainModule.dll_53A71524EEFDCE9D.mvfrm
Library/Bee/artifacts/mvdfrm/UnityEngine.TerrainPhysicsModule.dll_B93CBD7095C2D8FE.mvfrm
Library/Bee/artifacts/mvdfrm/UnityEngine.TextCoreFontEngineModule.dll_1FE9522D73A80B89.mvfrm
Library/Bee/artifacts/mvdfrm/UnityEngine.TextCoreTextEngineModule.dll_67D1889F032BC4A7.mvfrm
Library/Bee/artifacts/mvdfrm/UnityEngine.TextRenderingModule.dll_71840F7C129E94E7.mvfrm
Library/Bee/artifacts/mvdfrm/UnityEngine.TilemapModule.dll_F2A37CA606BAAFA6.mvfrm
Library/Bee/artifacts/mvdfrm/UnityEngine.UIElementsModule.dll_BEED58C8DC72C3C7.mvfrm
Library/Bee/artifacts/mvdfrm/UnityEngine.UIElementsNativeModule.dll_E5D670D12126B0BE.mvfrm
Library/Bee/artifacts/mvdfrm/UnityEngine.UIModule.dll_49B6875B16E58F40.mvfrm
Library/Bee/artifacts/mvdfrm/UnityEngine.UNETModule.dll_25420BA73EF503E4.mvfrm
Library/Bee/artifacts/mvdfrm/UnityEngine.UmbraModule.dll_B5D7E9F9C99ED691.mvfrm
Library/Bee/artifacts/mvdfrm/UnityEngine.UnityAnalyticsCommonModule.dll_54BFE5BAC9696C88.mvfrm
Library/Bee/artifacts/mvdfrm/UnityEngine.UnityAnalyticsModule.dll_D861856728A7306D.mvfrm
Library/Bee/artifacts/mvdfrm/UnityEngine.UnityConnectModule.dll_BCEE3F442CBEF2A1.mvfrm
Library/Bee/artifacts/mvdfrm/UnityEngine.UnityCurlModule.dll_412367AFD2A5E719.mvfrm
Library/Bee/artifacts/mvdfrm/UnityEngine.UnityTestProtocolModule.dll_38B2115F754C8807.mvfrm
Library/Bee/artifacts/mvdfrm/UnityEngine.UnityWebRequestAssetBundleModule.dll_7CC56F48DCAE5CFE.mvfrm
Library/Bee/artifacts/mvdfrm/UnityEngine.UnityWebRequestAudioModule.dll_317D7C5535EB98C2.mvfrm
Library/Bee/artifacts/mvdfrm/UnityEngine.UnityWebRequestModule.dll_2DBB39B04FBD2E78.mvfrm
Library/Bee/artifacts/mvdfrm/UnityEngine.UnityWebRequestTextureModule.dll_C257988B32FFBAD7.mvfrm
Library/Bee/artifacts/mvdfrm/UnityEngine.UnityWebRequestWWWModule.dll_3293CDFAF2EB8113.mvfrm
Library/Bee/artifacts/mvdfrm/UnityEngine.VFXModule.dll_928FCB2A1303BC30.mvfrm
Library/Bee/artifacts/mvdfrm/UnityEngine.VRModule.dll_9C88ADE0B8A014B8.mvfrm
Library/Bee/artifacts/mvdfrm/UnityEngine.VehiclesModule.dll_94B3375D222EEEE3.mvfrm
Library/Bee/artifacts/mvdfrm/UnityEngine.VideoModule.dll_600CC24BFF0A46C3.mvfrm
Library/Bee/artifacts/mvdfrm/UnityEngine.VirtualTexturingModule.dll_0A63253FF9D53149.mvfrm
Library/Bee/artifacts/mvdfrm/UnityEngine.WindModule.dll_08EA9EE6831C8CD4.mvfrm
Library/Bee/artifacts/mvdfrm/UnityEngine.XRModule.dll_CF4770E541DA6216.mvfrm
Library/Bee/artifacts/mvdfrm/UnityEngine.dll_50FBE8147BEE2F3A.mvfrm
Library/Bee/artifacts/mvdfrm/Unity.Android.Gradle.dll_64EBF90D3B228D28.mvfrm
Library/Bee/artifacts/mvdfrm/Unity.Android.Types.dll_D8538F1808570D94.mvfrm
Library/Bee/artifacts/mvdfrm/UnityEditor.Android.Extensions.dll_ECCB8B1B2EAC0268.mvfrm
Library/Bee/artifacts/mvdfrm/UnityEditor.LinuxStandalone.Extensions.dll_3E86DD1F23FDF390.mvfrm
Library/Bee/artifacts/mvdfrm/UnityEditor.WebGL.Extensions.dll_9AB8E07FFDAAEF70.mvfrm